All OID's were retrieved with the following command:

snmptranslate -On NET-SNMP-EXTEND-MIB::nsExtendOutputFull.\"<<VARNAME>>\"

You can use any SNMPD client to query the OID's below.  
The default webpage for the demos has a link to Visual SNMP and the binaries for it.

Be sure to use the cpl community (not public)

PACCDateCode
1.3.6.1.4.1.8072.1.3.2.3.1.2.12.80.65.67.67.68.97.116.101.67.111.100.101

PACCpuStatus
1.3.6.1.4.1.8072.1.3.2.3.1.2.12.80.65.67.67.112.117.83.116.97.116.117.115

PACSweepMode
1.3.6.1.4.1.8072.1.3.2.3.1.2.12.80.65.67.83.119.101.101.112.77.111.100.101

PACSweepTime
1.3.6.1.4.1.8072.1.3.2.3.1.2.12.80.65.67.83.119.101.101.112.84.105.109.101

PACScan10mMax
1.3.6.1.4.1.8072.1.3.2.3.1.2.13.80.65.67.83.99.97.110.49.48.109.77.97.120

PACScan10mAverage
1.3.6.1.4.1.8072.1.3.2.3.1.2.17.80.65.67.83.99.97.110.49.48.109.65.118.101.114.97.103.101

PACScan60mMax
1.3.6.1.4.1.8072.1.3.2.3.1.2.13.80.65.67.83.99.97.110.54.48.109.77.97.120

PACScan60mAverage
1.3.6.1.4.1.8072.1.3.2.3.1.2.17.80.65.67.83.99.97.110.54.48.109.65.118.101.114.97.103.101

PACScan60sMax
1.3.6.1.4.1.8072.1.3.2.3.1.2.13.80.65.67.83.99.97.110.54.48.115.77.97.120

PACScan60sAverage
1.3.6.1.4.1.8072.1.3.2.3.1.2.17.80.65.67.83.99.97.110.54.48.115.65.118.101.114.97.103.101

PACFaultString
1.3.6.1.4.1.8072.1.3.2.3.1.2.14.80.65.67.70.97.117.108.116.83.116.114.105.110.103

PACHardVersion
1.3.6.1.4.1.8072.1.3.2.3.1.2.14.80.65.67.72.97.114.100.86.101.114.115.105.111.110

PACSerialNumber
1.3.6.1.4.1.8072.1.3.2.3.1.2.15.80.65.67.83.101.114.105.97.108.78.117.109.98.101.114

PACCatalogNumber
1.3.6.1.4.1.8072.1.3.2.3.1.2.16.80.65.67.67.97.116.97.108.111.103.78.117.109.98.101.114

PACFirmwareVersion
1.3.6.1.4.1.8072.1.3.2.3.1.2.18.80.65.67.70.105.114.109.119.97.114.101.86.101.114.115.105.111.110
